data/test2/tek0009ALL.csv

Model,MDO3024
Firmware Version,1.26

Waveform Type,ANALOG,,
Point Format,Y,,
Horizontal Units,s,,
Horizontal Scale,8e-07,,
Horizontal Delay,3.44e-06,,
Sample Interval,8e-10,,
Record Length,10000,,
Gating,0.0% to 100.0%,,
Probe Attenuation,100,10,2000
Vertical Units,V,A,V
Vertical Offset,0,0,0
Vertical Scale,10,10,4000
Vertical Position,0,0,0
,,,
,,,
,,,
Label,,,
TIME,CH1,CH3,CH4
-5.6000e-07,-0.4,-0.8,-160
-5.5920e-07,-0.4,-0.8,160
-5.5840e-07,-0.4,-0.4,-160
-5.5760e-07,0,-0.8,0
-5.5680e-07,-0.4,-0.8,0
-5.5600e-07,-0.4,-0.8,0
-5.5520e-07,-0.4,-0.8,-160
-5.5440e-07,-0.4,-0.8,-160
-5.5360e-07,-0.4,0,0
-5.5280e-07,-0.4,-0.8,-160
-5.5200e-07,-0.4,-0.8,0
-5.5120e-07,-0.4,-0.4,0
-5.5040e-07,-0.4,-0.4,0
-5.4960e-07,-0.4,-0.4,0
-5.4880e-07,-0.4,-0.8,0
-5.4800e-07,-0.4,-0.4,-160
-5.4720e-07,-0.4,-0.4,0
-5.4640e-07,-0.4,-0.8,0
-5.4560e-07,-0.4,-0.8,-160
-5.4480e-07,-0.4,-0.4,160
-5.4400e-07,-0.4,-0.4,-160
-5.4320e-07,-0.4,-0.4,0
-5.4240e-07,-0.4,-0.4,-160
-5.4160e-07,-0.8,-0.4,0
-5.4080e-07,-0.4,-0.8,0
-5.4000e-07,-0.4,-0.4,-160
-5.3920e-07,0,-0.4,0
-5.3840e-07,-0.4,-0.4,0
-5.3760e-07,0,-0.8,-160
-5.3680e-07,-0.4,-0.8,-160
-5.3600e-07,-0.4,-0.4,0
-5.3520e-07,-0.4,-0.4,0
-5.3440e-07,-0.4,-0.4,-160
-5.3360e-07,-0.4,-0.8,-160
-5.3280e-07,-0.4,-0.8,0
-5.3200e-07,0,-0.4,0
-5.3120e-07,-0.4,-0.4,0
-5.3040e-07,0,-0.4,160
-5.2960e-07,-0.4,-0.4,0
-5.2880e-07,0,-0.8,0
-5.2800e-07,-0.4,-0.4,-160
-5.2720e-07,-0.4,-0.8,0
-5.2640e-07,-0.4,-0.4,160
-5.2560e-07,-0.4,-0.4,0
-5.2480e-07,0,-0.4,0
-5.2400e-07,-0.4,-0.4,0
-5.2320e-07,-0.4,-0.4,0
-5.2240e-07,-0.4,-0.4,0
-5.2160e-07,-0.4,-0.4,0
-5.2080e-07,0,-0.8,-160
-5.2000e-07,0,-0.8,-160
-5.1920e-07,-0.4,-0.8,-160
-5.1840e-07,-0.4,-0.8,-160
-5.1760e-07,0,-0.4,0
-5.1680e-07,0,-0.4,-160
-5.1600e-07,-0.4,-0.4,160
-5.1520e-07,-0.4,-0.4,-160
-5.1440e-07,-0.4,-0.4,-160
-5.1360e-07,-0.4,-0.4,160
-5.1280e-07,-0.4,-0.4,0
-5.1200e-07,-0.4,-0.4,-160
-5.1120e-07,-0.4,-0.4,0
-5.1040e-07,-0.4,-0.4,-160
-5.0960e-07,-0.4,-0.4,-160
-5.0880e-07,-0.4,-0.8,0
-5.0800e-07,-0.4,-1.2,0
-5.0720e-07,-0.4,-0.4,-160
-5.0640e-07,-0.4,-0.8,0
-5.0560e-07,-0.4,-0.4,0
-5.0480e-07,-0.4,-0.8,0
-5.0400e-07,-0.4,-0.4,-160
-5.0320e-07,0,-0.4,-160
-5.0240e-07,0,-0.8,0
-5.0160e-07,0,-0.4,-160
-5.0080e-07,-0.4,-0.4,-160
-5.0000e-07,-0.4,-0.8,-160
-4.9920e-07,-0.4,-0.8,-160
-4.9840e-07,-0.4,-0.8,0
-4.9760e-07,-0.4,-0.4,-160
-4.9680e-07,0,-0.8,0
-4.9600e-07,-0.4,-0.8,0
-4.9520e-07,-0.4,-0.8,0
-4.9440e-07,-0.4,-0.4,0
-4.9360e-07,-0.4,-0.4,-160
-4.9280e-07,-0.4,-0.8,-160
-4.9200e-07,-0.4,-0.8,0
-4.9120e-07,-0.4,-0.8,-160
-4.9040e-07,-0.4,-0.4,0
-4.8960e-07,-0.4,-0.4,0
-4.8880e-07,0,-0.4,0
-4.8800e-07,-0.4,-0.8,0
-4.8720e-07,-0.4,-0.4,0
-4.8640e-07,0,-0.4,0
-4.8560e-07,-0.4,-0.4,0
-4.8480e-07,-0.4,-0.4,-160
-4.8400e-07,-0.4,-0.8,-160
-4.8320e-07,0,-0.4,0
-4.8240e-07,-0.4,-0.8,160
-4.8160e-07,-0.4,-0.4,-160
-4.8080e-07,-0.4,-0.4,0
-4.8000e-07,0,-0.8,-160
-4.7920e-07,-0.4,-0.8,-160
-4.7840e-07,-0.4,-0.8,-160
-4.7760e-07,-0.4,-0.8,-160
-4.7680e-07,0,-0.8,-160
-4.7600e-07,-0.4,-0.4,160
-4.7520e-07,-0.4,-0.4,0
-4.7440e-07,-0.4,-0.4,-160
-4.7360e-07,-0.4,-0.8,0
-4.7280e-07,-0.4,-0.8,-160
-4.7200e-07,0,-0.8,0
-4.7120e-07,-0.4,-0.4,-160
-4.7040e-07,-0.4,-0.4,-160
-4.6960e-07,-0.4,-0.8,0
-4.6880e-07,0,-0.4,0
-4.6800e-07,-0.4,-0.8,0
-4.6720e-07,-0.4,-0.8,160
-4.6640e-07,-0.4,-0.8,0
-4.6560e-07,-0.4,-0.4,0
-4.6480e-07,-0.4,-0.8,0
-4.6400e-07,-0.4,-0.8,-160
-4.6320e-07,-0.4,-0.4,0
-4.6240e-07,-0.4,-0.4,0
-4.6160e-07,-0.4,-0.4,0
-4.6080e-07,-0.4,-0.8,0
-4.6000e-07,-0.4,-0.8,-160
-4.5920e-07,0,-0.4,-160
-4.5840e-07,0,-0.8,-160
-4.5760e-07,-0.8,-0.4,0
-4.5680e-07,-0.4,-0.4,0
-4.5600e-07,-0.4,-0.4,-160
-4.5520e-07,-0.4,-0.8,0
-4.5440e-07,-0.4,-1.2,0
-4.5360e-07,-0.4,-0.8,-160
-4.5280e-07,-0.4,-0.8,-160
-4.5200e-07,-0.4,-0.4,0
-4.5120e-07,-0.4,-0.4,-160
-4.5040e-07,0,-0.4,0
-4.4960e-07,0,-0.4,0
-4.4880e-07,-0.4,-0.8,-160
-4.4800e-07,-0.4,-0.4,-160
-4.4720e-07,-0.4,-0.4,0
-4.4640e-07,-0.4,-0.4,-160
-4.4560e-07,-0.4,-0.4,0
-4.4480e-07,-0.4,-0.4,-160
-4.4400e-07,-0.4,-0.4,-160
-4.4320e-07,-0.4,-0.4,-160
-4.4240e-07,-0.4,-0.4,0
-4.4160e-07,-0.4,-0.8,-160
-4.4080e-07,-0.4,-0.8,-160
-4.4000e-07,-0.4,-0.8,-160
-4.3920e-07,-0.4,-0.8,0
-4.3840e-07,0,-0.4,-320
-4.3760e-07,0,-0.4,0
-4.3680e-07,-0.4,-0.4,0
-4.3600e-07,-0.4,-0.4,-160
-4.3520e-07,-0.4,-0.4,160
-4.3440e-07,-0.4,-0.8,-160
-4.3360e-07,-0.4,-0.4,-160
-4.3280e-07,-0.4,-0.4,-160
-4.3200e-07,-0.8,-0.4,0
-4.3120e-07,-0.4,-0.4,-160
-4.3040e-07,-0.4,-0.4,0
-4.2960e-07,-0.4,-0.4,0
-4.2880e-07,-0.4,-0.4,0
-4.2800e-07,-0.4,-0.8,-160
-4.2720e-07,-0.4,-0.4,0
-4.2640e-07,-0.4,-0.4,0
-4.2560e-07,-0.4,-0.4,0
-4.2480e-07,-0.4,-0.4,0
-4.2400e-07,0,-0.4,160
-4.2320e-07,-0.4,-0.8,0
-4.2240e-07,-0.8,-0.4,-160
-4.2160e-07,-0.4,-0.8,0
-4.2080e-07,0,-0.4,0
-4.2000e-07,-0.4,-0.8,-160
-4.1920e-07,-0.4,-0.8,0
-4.1840e-07,-0.4,-0.8,0
-4.1760e-07,-0.4,-0.8,0
-4.1680e-07,-0.4,-0.4,0
-4.1600e-07,-0.4,-0.4,-160
-4.1520e-07,-0.4,-0.8,0
-4.1440e-07,-0.4,-0.4,-160
-4.1360e-07,-0.4,-0.4,0
-4.1280e-07,-0.4,-1.2,-160
-4.1200e-07,-0.4,-0.4,0
-4.1120e-07,-0.4,-0.8,0
-4.1040e-07,-0.4,-0.8,0
-4.0960e-07,-0.4,-0.4,-160
-4.0880e-07,-0.4,-0.4,0
-4.0800e-07,-0.4,-0.8,-160
-4.0720e-07,-0.4,-0.4,0
-4.0640e-07,-0.4,-0.4,0
-4.0560e-07,0,-0.8,-160
-4.0480e-07,-0.4,-0.4,0
-4.0400e-07,-0.4,-1.2,0
-4.0320e-07,-0.4,-0.4,0
-4.0240e-07,-0.4,-0.8,-160
-4.0160e-07,-0.4,-0.4,0
-4.0080e-07,-0.4,-1.2,0
-4.0000e-07,-0.4,-0.4,0
-3.9920e-07,-0.4,-0.4,160
-3.9840e-07,-0.4,-0.8,0
-3.9760e-07,-0.4,-0.4,-160
-3.9680e-07,-0.4,-0.8,-160
-3.9600e-07,-0.4,-0.4,-160
-3.9520e-07,-0.4,-0.4,-160
-3.9440e-07,-0.4,-0.4,-160
-3.9360e-07,-0.4,-0.8,-160
-3.9280e-07,-0.4,-0.4,0
-3.9200e-07,-0.4,-0.8,0
-3.9120e-07,-0.4,-0.8,0
-3.9040e-07,-0.4,-0.4,-160
-3.8960e-07,-0.4,-0.4,0
-3.8880e-07,-0.4,-0.4,0
-3.8800e-07,-0.4,-0.8,0
-3.8720e-07,-0.4,-0.8,160
-3.8640e-07,-0.4,-0.8,0
-3.8560e-07,-0.4,-0.4,-160
-3.8480e-07,-0.4,-0.4,0
-3.8400e-07,-0.4,-0.4,0
-3.8320e-07,-0.4,-0.8,0
-3.8240e-07,-0.4,-0.8,0
-3.8160e-07,-0.4,-0.8,0
-3.8080e-07,-0.4,-0.8,0
-3.8000e-07,-0.4,-0.4,0
-3.7920e-07,0,-0.8,0
-3.7840e-07,-0.4,-0.4,0
-3.7760e-07,-0.4,-0.4,0
-3.7680e-07,-0.4,-0.8,0
-3.7600e-07,-0.4,-0.8,0
-3.7520e-07,-0.4,-0.4,0
-3.7440e-07,-0.4,-0.8,-160
-3.7360e-07,-0.4,-0.8,-160
-3.7280e-07,-0.4,-0.4,0
-3.7200e-07,-0.4,-0.4,0
-3.7120e-07,-0.4,-0.8,0
-3.7040e-07,-0.4,-0.4,0
-3.6960e-07,-0.4,-0.8,0
-3.6880e-07,-0.4,-0.8,-160
-3.6800e-07,-0.4,-0.4,-160
-3.6720e-07,0,-0.4,0
-3.6640e-07,-0.4,-0.4,0
-3.6560e-07,-0.4,-0.4,-160
-3.6480e-07,-0.4,-0.4,0
-3.6400e-07,-0.4,-0.8,-160
-3.6320e-07,-0.4,-0.4,0
-3.6240e-07,-0.4,-0.4,-160
-3.6160e-07,-0.4,-0.4,-160
-3.6080e-07,-0.4,-0.4,-160
-3.6000e-07,-0.4,-0.4,-160
-3.5920e-07,-0.4,-0.8,0
-3.5840e-07,-0.4,-0.4,0
-3.5760e-07,-0.4,-0.4,-160
-3.5680e-07,-0.4,-0.4,-160
-3.5600e-07,-0.8,-0.4,0
-3.5520e-07,-0.4,-0.8,160
-3.5440e-07,-0.4,-0.4,-160
-3.5360e-07,-0.4,-0.4,0
-3.5280e-07,-0.4,-0.8,-160
-3.5200e-07,-0.4,-0.4,-160
-3.5120e-07,-0.4,-0.4,0
-3.5040e-07,-0.4,-0.8,-160
-3.4960e-07,-0.4,-0.8,0
-3.4880e-07,-0.4,-0.4,0
-3.4800e-07,-0.4,-0.8,0
-3.4720e-07,-0.4,-0.4,0
-3.4640e-07,-0.4,-0.8,0
-3.4560e-07,0,-0.4,-160
-3.4480e-07,0,-0.4,0
-3.4400e-07,0,-0.8,0
-3.4320e-07,0,-0.8,-160
-3.4240e-07,-0.4,-0.4,0
-3.4160e-07,0,-0.4,-160
-3.4080e-07,0,-0.8,0
-3.4000e-07,0,-0.8,0
-3.3920e-07,-0.4,-0.8,-160
-3.3840e-07,0,-0.4,-160
-3.3760e-07,-0.4,-0.8,0
-3.3680e-07,-0.4,-0.8,0
-3.3600e-07,-0.4,-0.4,0
-3.3520e-07,-0.8,-0.4,0
-3.3440e-07,-0.4,-0.4,0
-3.3360e-07,0,-0.8,0
-3.3280e-07,-0.4,-0.8,-160
-3.3200e-07,-0.4,-0.8,-160
-3.3120e-07,-0.4,-0.4,0
-3.3040e-07,-0.4,-0.8,0
-3.2960e-07,-0.4,-0.4,0
-3.2880e-07,-0.4,-0.8,0
-3.2800e-07,-0.4,-0.4,0
-3.2720e-07,-0.4,-0.4,0
-3.2640e-07,-0.4,-0.4,-160
-3.2560e-07,-0.4,-0.4,-320
-3.2480e-07,-0.4,-0.8,0
-3.2400e-07,-0.4,-0.8,0
-3.2320e-07,-0.4,-0.4,160
-3.2240e-07,-0.4,-0.8,0
-3.2160e-07,-0.4,-0.4,0
-3.2080e-07,-0.4,-0.4,-160
-3.2000e-07,-0.4,-0.4,0
-3.1920e-07,-0.4,-0.4,-160
-3.1840e-07,-0.4,-0.4,-160
-3.1760e-07,-0.4,-0.8,-160
-3.1680e-07,0,-0.4,-160
-3.1600e-07,-0.4,-0.8,-160
-3.1520e-07,-0.4,-0.4,-160
-3.1440e-07,-0.4,-0.8,0
-3.1360e-07,-0.4,-0.8,-160
-3.1280e-07,-0.4,-0.4,-160
-3.1200e-07,-0.4,-0.8,0
-3.1120e-07,-0.4,-0.4,0
-3.1040e-07,-0.4,-0.4,0
-3.0960e-07,-0.4,-0.8,-160
-3.0880e-07,-0.4,-0.4,0
-3.0800e-07,-0.4,-0.4,0
-3.0720e-07,-0.4,-0.8,0
-3.0640e-07,-0.4,-0.4,0
-3.0560e-07,0,-0.4,-160
-3.0480e-07,-0.4,-0.4,0
-3.0400e-07,-0.4,-1.2,0
-3.0320e-07,-0.4,-0.4,-160
-3.0240e-07,-0.4,-0.4,0
-3.0160e-07,-0.4,-0.4,0
-3.0080e-07,-0.4,-0.4,0
-3.0000e-07,-0.4,-0.4,0
-2.9920e-07,-0.4,-0.8,0
-2.9840e-07,-0.4,-0.4,-160
-2.9760e-07,-0.4,-0.4,0
-2.9680e-07,-0.4,-0.8,-160
-2.9600e-07,-0.4,-0.8,0
-2.9520e-07,-0.4,-0.4,0
-2.9440e-07,-0.4,-0.8,0
-2.9360e-07,0,-0.4,0
-2.9280e-07,-0.4,-0.4,-160
-2.9200e-07,0,-0.8,0
-2.9120e-07,0,-0.4,0
-2.9040e-07,0,-0.4,0
-2.8960e-07,-0.4,-0.4,0
-2.8880e-07,0,-0.8,0
-2.8800e-07,0,-0.4,-160
-2.8720e-07,-0.4,-0.4,0
-2.8640e-07,-0.4,-0.4,-160
-2.8560e-07,-0.4,-0.4,-160
-2.8480e-07,-0.4,-0.8,0
-2.8400e-07,-0.4,-0.4,-160
-2.8320e-07,-0.4,-0.4,0
-2.8240e-07,-0.4,-0.4,0
-2.8160e-07,-0.4,-0.4,-160
-2.8080e-07,-0.4,-0.8,0
-2.8000e-07,-0.4,-0.8,-160
-2.7920e-07,-0.4,-0.4,0
-2.7840e-07,-0.4,-0.4,-160
-2.7760e-07,-0.4,-0.8,0
-2.7680e-07,-0.4,-0.8,0
-2.7600e-07,0,-0.4,0
-2.7520e-07,-0.4,-0.4,0
-2.7440e-07,-0.4,-0.8,0
-2.7360e-07,-0.4,-0.8,-160
-2.7280e-07,-0.4,-0.4,-160
-2.7200e-07,-0.4,-0.8,0
-2.7120e-07,-0.4,-0.8,0
-2.7040e-07,0,-0.4,0
-2.6960e-07,0,-0.4,-160
-2.6880e-07,-0.4,-0.8,-160
-2.6800e-07,0,-0.8,0
-2.6720e-07,0,-0.8,-160
-2.6640e-07,-0.4,-0.4,-160
-2.6560e-07,-0.4,-0.4,0
-2.6480e-07,-0.4,-0.8,0
-2.6400e-07,0,-0.8,-160
-2.6320e-07,-0.4,-0.4,160
-2.6240e-07,-0.4,-0.4,0
-2.6160e-07,-0.4,-0.4,0
-2.6080e-07,0,-0.4,-160
-2.6000e-07,-0.4,-0.8,0
-2.5920e-07,-0.4,-0.4,0
-2.5840e-07,-0.4,-0.8,-160
-2.5760e-07,0,-0.8,0
-2.5680e-07,-0.4,-0.4,-160
-2.5600e-07,-0.4,-0.8,0
-2.5520e-07,-0.4,-0.4,-160
-2.5440e-07,-0.4,-0.4,0
-2.5360e-07,-0.4,-0.8,0
-2.5280e-07,-0.4,-0.4,0
-2.5200e-07,-0.4,-0.4,0
-2.5120e-07,-0.4,-0.8,0
-2.5040e-07,-0.4,-0.8,0
-2.4960e-07,0,-0.4,0
-2.4880e-07,-0.4,-0.8,0
-2.4800e-07,-0.4,-0.8,160
-2.4720e-07,0,-0.8,-160
-2.4640e-07,0,-0.4,0
-2.4560e-07,0,-0.4,160
-2.4480e-07,0,-0.4,0
-2.4400e-07,0,-0.8,0
-2.4320e-07,0,-0.8,0
-2.4240e-07,0,-0.4,0
-2.4160e-07,-0.4,-0.8,0
-2.4080e-07,0,-0.8,0
-2.4000e-07,-0.4,-0.4,0
-2.3920e-07,-0.4,-0.4,0
-2.3840e-07,-0.4,-0.8,-160
-2.3760e-07,-0.4,-0.4,-160
-2.3680e-07,-0.4,-0.4,0
-2.3600e-07,-0.4,-0.4,0
-2.3520e-07,-0.4,-0.4,-160
-2.3440e-07,-0.4,-0.8,0
-2.3360e-07,-0.4,-0.8,160
-2.3280e-07,-0.4,-0.8,0
-2.3200e-07,-0.4,-0.8,0
-2.3120e-07,-0.4,-0.4,-160
-2.3040e-07,-0.4,-0.8,0
-2.2960e-07,-0.4,-0.4,0
-2.2880e-07,0,-0.4,0
-2.2800e-07,-0.4,-0.4,0
-2.2720e-07,-0.4,-0.4,0
-2.2640e-07,-0.4,-0.4,0
-2.2560e-07,-0.4,0,-160
-2.2480e-07,-0.4,-0.8,-160
-2.2400e-07,0,-0.4,0
-2.2320e-07,-0.8,-0.4,0
-2.2240e-07,-0.4,-0.4,0
-2.2160e-07,-0.4,-0.4,0
-2.2080e-07,-0.4,-0.4,0
-2.2000e-07,-0.4,-0.8,-160
-2.1920e-07,-0.4,-0.8,0
-2.1840e-07,0,-0.8,0
-2.1760e-07,-0.4,-0.8,0
-2.1680e-07,-0.4,-0.4,0
-2.1600e-07,-0.4,-0.4,-160
-2.1520e-07,-0.4,-0.4,0
-2.1440e-07,-0.4,-0.8,0
-2.1360e-07,-0.4,-0.4,0
-2.1280e-07,-0.4,-0.4,0
-2.1200e-07,-0.4,-0.8,-160
-2.1120e-07,-0.4,-0.4,-160
-2.1040e-07,-0.4,-0.4,-160
-2.0960e-07,-0.4,-0.4,-160
-2.0880e-07,-0.4,-0.4,-160
-2.0800e-07,-0.8,-0.4,0
-2.0720e-07,-0.4,-0.8,0
-2.0640e-07,0,-0.4,0
-2.0560e-07,0,-0.4,0
-2.0480e-07,-0.4,-0.4,0
-2.0400e-07,-0.4,-0.4,-160
-2.0320e-07,-0.4,-0.8,0
-2.0240e-07,0,-0.4,0
-2.0160e-07,-0.4,-0.4,160
-2.0080e-07,0,-0.4,0
-2.0000e-07,-0.4,-0.4,0
-1.9920e-07,-0.4,-0.4,0
-1.9840e-07,0,-0.8,0
-1.9760e-07,-0.4,-0.8,-160
-1.9680e-07,0,-0.4,0
-1.9600e-07,-0.4,-0.4,0
-1.9520e-07,-0.4,-0.4,0
-1.9440e-07,-0.4,-0.4,160
-1.9360e-07,-0.4,-0.4,0
-1.9280e-07,0,-0.8,-160
-1.9200e-07,-0.4,-0.4,0
-1.9120e-07,-0.4,-0.4,0
-1.9040e-07,-0.4,-0.4,0
-1.8960e-07,-0.4,-0.4,0
-1.8880e-07,-0.4,-0.4,-160
-1.8800e-07,-0.4,-0.4,0
-1.8720e-07,-0.4,-0.4,0
-1.8640e-07,-0.4,-0.8,0
-1.8560e-07,0,-0.4,-160
-1.8480e-07,-0.4,-0.4,0
-1.8400e-07,-0.4,-0.4,0
-1.8320e-07,-0.4,-0.8,-160
-1.8240e-07,-0.4,-0.4,-160
-1.8160e-07,0,-0.4,-160
-1.8080e-07,-0.4,-0.4,0
-1.8000e-07,0,-0.4,0
-1.7920e-07,-0.4,-0.8,0
-1.7840e-07,-0.4,-0.4,0
-1.7760e-07,-0.4,-0.4,0
-1.7680e-07,-0.4,-0.8,0
-1.7600e-07,-0.4,-0.8,0
-1.7520e-07,-0.4,-0.8,0
-1.7440e-07,-0.4,-0.8,0
-1.7360e-07,-0.4,-0.8,0
-1.7280e-07,-0.4,-0.4,0
-1.7200e-07,-0.4,-0.4,-160
-1.7120e-07,-0.4,-0.4,-160
-1.7040e-07,-0.4,-0.8,0
-1.6960e-07,-0.4,-0.4,-160
-1.6880e-07,-0.4,-0.4,-160
-1.6800e-07,-0.4,-0.4,-160
-1.6720e-07,-0.4,-0.8,0
-1.6640e-07,-0.4,-0.8,0
-1.6560e-07,-0.8,-0.4,-160
-1.6480e-07,0,-0.8,-160
-1.6400e-07,0,-0.4,-160
-1.6320e-07,-0.4,-0.4,-160
-1.6240e-07,-0.4,-0.4,0
-1.6160e-07,-0.4,-0.4,-320
-1.6080e-07,0,-0.4,0
-1.6000e-07,-0.4,-0.4,0
-1.5920e-07,-0.4,-0.4,0
-1.5840e-07,0,-0.4,0
-1.5760e-07,-0.4,-0.8,0
-1.5680e-07,0,-0.4,-160
-1.5600e-07,-0.4,-0.4,-160
-1.5520e-07,-0.4,-0.8,-160
-1.5440e-07,0,-0.4,-160
-1.5360e-07,-0.4,-0.8,0
-1.5280e-07,-0.4,-0.4,-160
-1.5200e-07,-0.4,-0.4,0
-1.5120e-07,0,-0.4,0
-1.5040e-07,-0.4,-0.8,-160
-1.4960e-07,-0.4,-0.4,0
-1.4880e-07,0,-0.8,0
-1.4800e-07,0,-0.8,0
-1.4720e-07,-0.4,-0.4,0
-1.4640e-07,0,-0.8,0
-1.4560e-07,0,-0.8,-160
-1.4480e-07,-0.4,-0.4,0
-1.4400e-07,-0.4,-0.4,-160
-1.4320e-07,0,-0.8,-160
-1.4240e-07,0,-0.8,0
-1.4160e-07,0,-0.4,0
-1.4080e-07,0,-0.4,-160
-1.4000e-07,-0.4,-0.4,-160
-1.3920e-07,0,-0.8,-160
-1.3840e-07,0,-0.4,0
-1.3760e-07,0,-0.4,0
-1.3680e-07,0,-0.4,0
-1.3600e-07,0.4,-0.8,0
-1.3520e-07,0.8,-0.8,0
-1.3440e-07,0,-0.8,-160
-1.3360e-07,0.8,-0.4,0
-1.3280e-07,0.8,-0.8,0
-1.3200e-07,0.4,-0.4,0
-1.3120e-07,0,-0.4,160
-1.3040e-07,0.4,-0.4,0
-1.2960e-07,0.4,-0.4,0
-1.2880e-07,0.8,-0.8,-160
-1.2800e-07,0.8,-0.4,-160
-1.2720e-07,0.4,-0.4,-160
-1.2640e-07,0.8,-0.4,-160
-1.2560e-07,0.8,-0.4,0
-1.2480e-07,1.2,-0.8,0
-1.2400e-07,0.8,-0.8,0
-1.2320e-07,1.2,-0.4,-160
-1.2240e-07,1.2,-0.4,-160
-1.2160e-07,1.2,0,-160
-1.2080e-07,0.8,-0.4,0
-1.2000e-07,1.2,-0.4,0
-1.1920e-07,1.2,-0.8,-160
-1.1840e-07,1.6,-0.4,0
-1.1760e-07,1.2,-0.4,0
-1.1680e-07,2,0,0
-1.1600e-07,2,-0.4,-160
-1.1520e-07,2.4,-0.8,-160
-1.1440e-07,2,-0.4,0
-1.1360e-07,2,-0.4,0
-1.1280e-07,2,-0.8,-160
-1.1200e-07,2.4,-0.4,0
-1.1120e-07,1.6,-0.8,0
-1.1040e-07,2,-0.8,0
-1.0960e-07,2.4,-0.8,0
-1.0880e-07,2,-0.4,0
-1.0800e-07,2.4,-0.4,0
-1.0720e-07,2.8,-0.4,0
-1.0640e-07,2.4,-0.4,0
-1.0560e-07,2.8,-0.4,0
-1.0480e-07,2.4,-0.4,0
-1.0400e-07,3.2,-0.4,-160
-1.0320e-07,2.8,-0.4,0
-1.0240e-07,3.2,-1.2,0
-1.0160e-07,2.8,-0.4,0
-1.0080e-07,3.6,-0.8,-160
-1.0000e-07,3.2,-0.4,160
-9.9200e-08,3.6,-0.4,0
-9.8400e-08,3.6,-0.4,0
-9.7600e-08,3.6,-0.4,-160
-9.6800e-08,3.6,-0.4,0
-9.6000e-08,3.6,-0.4,-160
-9.5200e-08,4,-0.4,0
-9.4400e-08,3.6,-0.4,0
-9.3600e-08,4,-0.8,0
-9.2800e-08,4,-0.4,0
-9.2000e-08,4.4,-0.8,-160
-9.1200e-08,4,-0.8,0
-9.0400e-08,4.4,-0.4,-160
-8.9600e-08,4.8,-0.8,0
-8.8800e-08,4.4,-0.8,-160
-8.8000e-08,4,-0.4,0
-8.7200e-08,4.4,-0.4,0
-8.6400e-08,5.2,-0.4,-160
-8.5600e-08,4.8,-0.8,0
-8.4800e-08,5.2,-0.4,0
-8.4000e-08,5.2,-0.4,-160
-8.3200e-08,4.8,-0.4,0
-8.2400e-08,5.6,-0.4,0
-8.1600e-08,5.2,-0.8,-160
-8.0800e-08,5.2,-0.4,-160
-8.0000e-08,5.6,-0.4,0
-7.9200e-08,5.6,-0.8,0
-7.8400e-08,6,-0.8,0
-7.7600e-08,6,-0.4,0
-7.6800e-08,6.4,-0.4,0
-7.6000e-08,6,-0.8,0
-7.5200e-08,6.4,-0.4,0
-7.4400e-08,6.4,-0.8,-160
-7.3600e-08,6.4,-0.8,-160
-7.2800e-08,6.8,-0.8,0
-7.2000e-08,6.8,-0.8,0
-7.1200e-08,6.8,-0.4,0
-7.0400e-08,7.2,-0.4,0
-6.9600e-08,7.2,-0.4,0
-6.8800e-08,7.2,-0.8,-160
-6.8000e-08,7.6,-0.8,-160
-6.7200e-08,7.2,-0.8,-160
-6.6400e-08,8,-0.4,-160
-6.5600e-08,7.2,-0.8,-160
-6.4800e-08,7.6,-0.4,-160
-6.4000e-08,7.2,-0.4,-160
-6.3200e-08,7.2,-0.4,0
-6.2400e-08,6.4,-0.8,0
-6.1600e-08,6.8,-0.4,-160
-6.0800e-08,6.8,-0.4,0
-6.0000e-08,7.2,-0.4,0
-5.9200e-08,7.2,-0.4,0
-5.8400e-08,6.8,-0.4,0
-5.7600e-08,6.8,0,0
-5.6800e-08,6.8,-0.4,-160
-5.6000e-08,6.8,-0.4,-160
-5.5200e-08,6.4,-0.8,0
-5.4400e-08,6.4,-0.8,-160
-5.3600e-08,6.4,-0.8,-160
-5.2800e-08,6.8,-0.8,0
-5.2000e-08,6.8,-0.4,-160
-5.1200e-08,6.8,-0.4,0
-5.0400e-08,6.4,-0.4,0
-4.9600e-08,6.8,-0.8,-160
-4.8800e-08,6.4,-0.4,0
-4.8000e-08,6.8,-0.8,-160
-4.7200e-08,6.4,-0.4,0
-4.6400e-08,6.4,-0.4,0
-4.5600e-08,6.4,-0.8,0
-4.4800e-08,6.8,-0.4,-160
-4.4000e-08,6.8,-0.4,-160
-4.3200e-08,6.8,-0.4,0
-4.2400e-08,6.8,-0.8,0
-4.1600e-08,6.8,-0.4,-160
-4.0800e-08,6.8,-0.4,0
-4.0000e-08,7.2,-0.4,0
-3.9200e-08,7.2,-0.8,0
-3.8400e-08,7.6,-0.4,0
-3.7600e-08,6.8,-0.8,-160
-3.6800e-08,7.6,-0.8,0
-3.6000e-08,8,-0.4,-160
-3.5200e-08,7.2,-0.4,0
-3.4400e-08,6.8,-0.8,-160
-3.3600e-08,7.2,-0.4,-160
-3.2800e-08,7.6,-0.4,0
-3.2000e-08,7.6,-0.4,0
-3.1200e-08,7.6,-0.4,0
-3.0400e-08,7.2,-0.4,0
-2.9600e-08,7.6,-0.8,0
-2.8800e-08,7.6,-0.4,0
-2.8000e-08,7.6,-0.4,0
-2.7200e-08,7.2,-0.8,0
-2.6400e-08,7.6,-0.8,-160
-2.5600e-08,7.6,-0.8,0
-2.4800e-08,7.6,-0.8,0
-2.4000e-08,7.2,-0.4,0
-2.3200e-08,7.6,-0.8,-160
-2.2400e-08,7.2,-0.8,0
-2.1600e-08,7.2,-0.8,-160
-2.0800e-08,6.8,-0.8,-160
-2.0000e-08,7.6,-0.4,0
-1.9200e-08,7.6,-0.4,0
-1.8400e-08,7.6,-0.8,0
-1.7600e-08,7.2,-0.8,-160
-1.6800e-08,7.6,-0.4,0
-1.6000e-08,7.2,-0.8,0
-1.5200e-08,7.2,-0.4,0
-1.4400e-08,7.6,-0.4,0
-1.3600e-08,7.6,-0.4,0
-1.2800e-08,7.2,-0.8,0
-1.2000e-08,7.2,-0.4,-160
-1.1200e-08,7.2,-0.8,-160
-1.0400e-08,7.2,-0.4,0
-9.6000e-09,7.6,-0.4,0
-8.8000e-09,7.6,-0.8,-160
-8.0000e-09,7.2,-0.8,0
-7.2000e-09,7.2,-0.8,-320
-6.4000e-09,7.2,-0.8,0
-5.6000e-09,7.6,-0.4,0
-4.8000e-09,7.6,-0.4,0
-4.0000e-09,7.6,-0.4,0
-3.2000e-09,8,-0.4,-160
-2.4000e-09,7.6,-0.4,0
-1.6000e-09,7.2,-0.4,-160
-8.0000e-10,8,-0.4,-160
-0.0000e+00,7.6,-0.4,0
8.0000e-10,7.6,-0.8,0
1.6000e-09,7.6,-0.8,0
2.4000e-09,7.6,-0.4,0
3.2000e-09,7.6,-0.8,0
4.0000e-09,8,-0.4,-160
4.8000e-09,8,-0.4,0
5.6000e-09,7.6,-0.8,0
6.4000e-09,7.6,-0.8,0
7.2000e-09,8,-0.4,-160
8.0000e-09,8,-0.8,-160
8.8000e-09,7.6,-0.4,0
9.6000e-09,7.6,-0.8,0
1.0400e-08,7.6,-0.4,-160
1.1200e-08,8,-0.4,-160
1.2000e-08,7.6,-0.8,0
1.2800e-08,7.6,-0.8,-160
1.3600e-08,7.6,-0.4,-160
1.4400e-08,7.6,-0.8,160
1.5200e-08,7.6,-0.4,0
1.6000e-08,8,-0.4,0
1.6800e-08,7.6,-0.4,0
1.7600e-08,7.6,-0.8,0
1.8400e-08,8,-0.8,0
1.9200e-08,7.2,-0.8,160
2.0000e-08,7.6,-0.4,0
2.0800e-08,7.6,-0.8,0
2.1600e-08,8,-0.4,-320
2.2400e-08,7.6,-0.8,-160
2.3200e-08,7.6,-0.8,0
2.4000e-08,7.6,-0.4,0
2.4800e-08,7.6,-0.4,0
2.5600e-08,7.6,-0.8,0
2.6400e-08,7.6,-0.4,0
2.7200e-08,7.6,-0.4,-160
2.8000e-08,8,-0.8,0
2.8800e-08,8,-0.4,0
2.9600e-08,8,-0.8,-160
3.0400e-08,8,-0.4,-160
3.1200e-08,8,-0.8,0
3.2000e-08,8,-0.8,-160
3.2800e-08,8,-0.4,0
3.3600e-08,7.6,-0.4,0
3.4400e-08,8.4,-0.8,-160
3.5200e-08,8,-0.4,0
3.6000e-08,8,-0.4,-160
3.6800e-08,7.6,-0.4,0
3.7600e-08,8.4,-0.4,0
3.8400e-08,8.4,-0.4,-320
3.9200e-08,8.4,-0.4,0
4.0000e-08,8.4,-0.4,0
4.0800e-08,8,-0.4,0
4.1600e-08,8.4,-0.8,0
4.2400e-08,8.8,-0.4,-160
4.3200e-08,9.2,-0.4,-160
4.4000e-08,8.8,-0.4,-160
4.4800e-08,8.8,-0.4,-160
4.5600e-08,8.8,-0.4,0
4.6400e-08,8.4,-0.4,0
4.7200e-08,8.8,-0.4,160
4.8000e-08,8.8,-0.8,-160
4.8800e-08,8.8,-0.8,0
4.9600e-08,8.8,-0.8,0
5.0400e-08,9.2,-0.4,-160
5.1200e-08,8.8,-0.8,-160
5.2000e-08,8.4,-0.4,-160
5.2800e-08,8.8,-0.8,0
5.3600e-08,9.2,-0.4,-160
5.4400e-08,8.8,-0.4,0
5.5200e-08,8.8,-0.8,-160
5.6000e-08,9.2,-0.4,-160
5.6800e-08,9.2,-0.4,0
5.7600e-08,8.8,-1.2,0
5.8400e-08,9.2,-0.4,0
5.9200e-08,9.6,-0.4,0
6.0000e-08,9.2,-0.8,0
6.0800e-08,9.6,-0.4,0
6.1600e-08,10,-0.4,0
6.2400e-08,9.2,-0.8,0
6.3200e-08,9.2,-0.4,-160
6.4000e-08,9.2,-0.4,0
6.4800e-08,9.2,-0.4,0
6.5600e-08,9.2,-0.4,-160
6.6400e-08,9.6,-0.4,-160
6.7200e-08,9.2,-0.8,0
6.8000e-08,9.2,-0.8,-160
6.8800e-08,8.8,-0.8,0
6.9600e-08,9.6,-0.8,-160
7.0400e-08,9.2,-0.4,-160
7.1200e-08,10,-0.4,0
7.2000e-08,9.6,-0.8,-160
7.2800e-08,9.6,-0.8,0
7.3600e-08,9.6,-0.8,0
7.4400e-08,9.6,-0.8,0
7.5200e-08,9.6,-0.4,-160
7.6000e-08,9.2,-1.2,0
7.6800e-08,10,-0.8,0
7.7600e-08,9.6,-0.8,0
7.8400e-08,9.6,-0.4,0
7.9200e-08,9.6,-0.4,0
8.0000e-08,10,-0.4,160
8.0800e-08,9.2,-0.4,0
8.1600e-08,10,-0.4,0
8.2400e-08,10,-0.4,0
8.3200e-08,10.4,-0.8,0
8.4000e-08,9.6,-0.8,-160
8.4800e-08,10,-0.4,0
8.5600e-08,9.6,-0.4,-160
8.6400e-08,10,-0.8,0
8.7200e-08,10,-0.8,-160
8.8000e-08,9.6,-0.4,0
8.8800e-08,10,-0.8,-160
